{
  "cviceni": {
    "version": {
      "global": "<%= version %>",
      "content": 3
    },
    "katalog": [
      "test",
      "public"
    ],
    "language": "cs",
    "slug": "co-delaji-zeny-na-fotografii",
    "nazev": "Co dělají ženy na fotografii?",
    "autor": [
      "Kamil Činátl"
    ],
    "klicovaSlova": {
      "rvp": [
        "první světová válka"
      ],
      "koncept": [
        "každodennost",
        "gender"
      ],
      "b4": [
        "trvání a změna"
      ],
      "historylab": [
        "otevíráme otázku"
      ]
    },
    "casovaOsa": {
      "roky": [
        1918
      ],
      "epochy": [
        {
          "nazev": "ceska",
          "obdobi": [
            ""
          ]
        },
        {
          "nazev": "svetova",
          "obdobi": [
            "První světová válka a její důsledky"
          ]
        }
      ]
    },
    "anotace": {
      "ucitel": "Fotografie ve cvičení zachycuje dvě mladé ženy, jak v září 1918 rozvážejí led v americkém velkoměstě. Tento snímek je na první pohled možná nesrozumitelný. Žákům však při analýze fotografie a popisky ukáže jeden z významných dopadů první světové války na společnost. Žáci dále vnímají, jak se každodenní život proměňuje i díky nástupu jednotlivých moderních technologií.",
      "verejna": "Co dělají ženy na snímku z roku 1918? Vyzkoušejte si, jakou máte historickou představivost. Vypátrejte, jak válka ovlivnila běžný život lidí. Všímejte si detailů a poznejte, v čem se lišil tehdejší běžný život od naší současnosti."
    },
    "trvani": 25,
    "obtiznost": "nízká",
    "funkce": [
      "lupa",
      "text",
      "svg",
      "kresleni"
    ],
    "pdf": {
      "doporucenyPostup": "co-delaji-zeny-na-fotografii.pdf"
    },
    "uvodniObrazek": "co-delaji-zeny-na-fotografii/pic-00-1280w.jpg",
    "id": 39
  },
  "slajd": [
    {
      "class": [],
      "zadani": {
        "hlavni": "Prohlédněte si fotografii.",
        "rozsirujici": ""
      },
      "napoveda": {
        "aktivity": [
          "lupa"
        ],
        "text": "Při kliknutí levým tlačítkem do obrazu lupa přiblíží část obrazu ve výřezu."
      },
      "prameny": [
        "co-delaji-zeny-na-fotografii/pic-00-1280w.jpg"
      ]
    },
    {
      "class": [
        "half-slide-previous"
      ],
      "zadani": {
        "hlavni": "Označte důležité prvky na fotografii a popište je.",
        "rozsirujici": ""
      },
      "napoveda": {
        "aktivity": [
          "svg"
        ],
        "text": "Tahem myši levým tlačítkem kreslíte do obrazu. Nakliknutím na nakreslený tvar pravým tlačítkem otevřete menu s nabídkou úkonů: změnit barvu tvaru, (T) doplnit textový komentář, (X) smazat nakliknutý objekt."
      },
      "svg": {
        "soubory": [
          {
            "id": "svg-1",
            "soubor": "co-delaji-zeny-na-fotografii/pic-00-1280w.jpg",
            "funkce": [
              "text",
              "kresleni"
            ]
          }
        ]
      }
    },
    {
      "class": [
        "half-slide-active"
      ],
      "zadani": {
        "hlavni": "Co dělají ženy na snímku?",
        "rozsirujici": ""
      },
      "napoveda": {
        "aktivity": [
          "text"
        ],
        "text": "Do boxu pro text zapisujete odpověď na otázku, nebo jiný komentář (dle zadání)."
      },
      "uzivatelskyText": {
        "otazky": [
          {
            "id": "text-1",
            "zadani": "",
            "instrukce": "Myslím si, že…",
            "maxDelka": 400
          }
        ]
      }
    },
    {
      "class": [
        "half-slide-previous"
      ],
      "zadani": {
        "hlavni": "Přečtěte si popisku k fotografii. Nově zjištěné informace zakreslete a zapište do fotografie.",
        "rozsirujici": ""
      },
      "napoveda": {
        "aktivity": [
          "svg"
        ],
        "text": "Tahem myši levým tlačítkem kreslíte do obrazu. Nakliknutím na nakreslený tvar pravým tlačítkem otevřete menu s nabídkou úkonů: změnit barvu tvaru, (T) doplnit textový komentář, (X) smazat nakliknutý objekt."
      },
      "popisky": [
        "Povolání ledařů zaniklo vlivem moderních technologií. Na počátku minulého století se led v zimě shromažďoval v ledárnách, odkud jej ledaři v průběhu teplých měsíců rozváželi. K čemu jej obyvatelé měst mohli využívat? Na snímku americké ženy, které rozvážejí led během první světové války, 16. září 1918. Zdroj: National Archives USA"
      ],
      "svg": {
        "soubory": [
          {
            "id": "svg-2",
            "soubor": "co-delaji-zeny-na-fotografii/pic-00-1280w.jpg",
            "duplikovat": [
              "svg-1"
            ],
            "funkce": [
              "text",
              "kresleni"
            ],
            "barvy": [
              "red"
            ]
          }
        ]
      }
    },
    {
      "class": [
        "half-slide-active"
      ],
      "zadani": {
        "hlavni": "Odpovězte na otázky.",
        "rozsirujici": ""
      },
      "napoveda": {
        "aktivity": [
          "text"
        ],
        "text": "Do boxu pro text zapisujete odpověď na otázku, nebo jiný komentář (dle zadání)."
      },
      "uzivatelskyText": {
        "otazky": [
          {
            "id": "text-3",
            "zadani": "Proč se zavážel led?",
            "instrukce": "Myslím si, že…",
            "maxDelka": 400
          },
          {
            "id": "text-4",
            "zadani": "Proč tak těžkou práci dělaly ženy?",
            "instrukce": "Myslím si, že…",
            "maxDelka": 400
          }
        ]
      }
    }
  ]
}