{
  "cviceni": {
    "version": {
      "global": "<%= version %>",
      "content": 3
    },
    "katalog": [
      "test"
    ],
    "language": "cs",
    "slug": "proc-jezdit-bezpecne",
    "nazev": "Proč jezdit bezpečně?",
    "autor": [
      "Čeněk Pýcha"
    ],
    "klicovaSlova": {
      "rvp": [
        "Československo 50. léta",
        "vzdělání"
      ],
      "koncept": [
        "každodennost"
      ],
      "b4": [
        "vztah k minulosti"
      ],
      "historylab": [
        "formulujeme a ověřujeme hypotézu"
      ]
    },
    "casovaOsa": {
      "roky": [
        1950
      ],
      "epochy": [
        {
          "nazev": "ceska",
          "obdobi": [
            "Poválečná doba a nástup komunismu"
          ]
        },
        {
          "nazev": "svetova",
          "obdobi": [
            ""
          ]
        }
      ]
    },
    "anotace": {
      "ucitel": "Snímek z roku 1950 zachycuje kampaň k bezpečnosti automobilové dopravy na Václavském náměstí v Praze. Žáci nejprve bez znalosti kontextu formulují hypotézy, co se na fotografii děje. Následně své domněnky zpřesňují na základě dobové popisky a další fotografie z osvětové akce. Cvičení vede žáky k vnímání historických změn v automobilové dopravě a ke srovnání osvětových a reklamních kampaní.",
      "verejna": "Podívejte se na snímek nabouraného vozu v centru města. Co ale fotografie skutečně zachycuje a z jaké doby by mohla pocházet? Výsledek vás možná překvapí."
    },
    "trvani": 30,
    "obtiznost": "",
    "funkce": [
      "lupa",
      "svg",
      "text",
      "kresleni"
    ],
    "pdf": {
      "doporucenyPostup": "proc-jezdit-bezpecne.pdf"
    },
    "uvodniObrazek": "proc-jezdit-bezpecne/pic-00-1280w.jpg",
    "id": 37
  },
  "slajd": [
    {
      "class": [
        "half-slide-previous"
      ],
      "zadani": {
        "hlavni": "Prohlédněte si fotografii.",
        "rozsirujici": ""
      },
      "napoveda": {
        "aktivity": [
          "lupa"
        ],
        "text": ""
      },
      "prameny": [
        "proc-jezdit-bezpecne/pic-00-1280w.jpg"
      ]
    },
    {
      "class": [
        "half-slide-active"
      ],
      "zadani": {
        "hlavni": "Co podle vás fotografie zachycuje?",
        "rozsirujici": ""
      },
      "napoveda": {
        "aktivity": [
          "text"
        ],
        "text": "Do boxu pro text zapisujete odpověď na otázku, nebo jiný komentář (dle zadání)."
      },
      "uzivatelskyText": {
        "otazky": [
          {
            "id": "text-1",
            "zadani": "",
            "instrukce": "Myslím si, že…",
            "minDelka": 10,
            "maxDelka": 400
          }
        ]
      }
    },
    {
      "class": [
        "half-slide-previous"
      ],
      "zadani": {
        "hlavni": "Označte a popište prvky, které vám pomohou rozhodnout, co se na fotografiích děje."
      },
      "napoveda": {
        "aktivity": [
          "svg"
        ],
        "text": "Tahem myši levým tlačítkem kreslíte do obrazu. Nakliknutím na nakreslený tvar pravým tlačítkem otevřete menu s nabídkou úkonů: změnit barvu tvaru, (T) doplnit textový komentář, (X) smazat nakliknutý objekt."
      },
      "svg": {
        "soubory": [
          {
            "id": "svg-1",
            "soubor": "proc-jezdit-bezpecne/pic-00-1024w.jpg",
            "funkce": [
              "text",
              "kresleni"
            ]
          },
          {
            "id": "svg-2",
            "soubor": "proc-jezdit-bezpecne/pic-01-1024w.jpg",
            "funkce": [
              "text",
              "kresleni"
            ]
          }
        ]
      },
      "popisky": [
        "„Krajský národní výbor v Praze uspořádal na Václavském náměstí výstavu bezpečnosti v dopravě. Výstava názorně ukazuje, jak zabránit neštěstí v dopravě a hospodářským škodám. Na sn. Pražané si prohlížejí výstavu-výsledek neopatrné jízdy.” Foto Koláček, 24. listopadu 1950. Zdroj: ČTK"
      ]
    },
    {
      "class": [
        "half-slide-active"
      ],
      "zadani": {
        "hlavni": "Proč jezdit bezpečně?",
        "rozsirujici": ""
      },
      "napoveda": {
        "aktivity": [
          "text"
        ],
        "text": "Do boxu pro text zapisujete odpověď na otázku, nebo jiný komentář (dle zadání)."
      },
      "uzivatelskyText": {
        "otazky": [
          {
            "id": "text-2",
            "zadani": "Popište smysl akce. Využijte vámi označené prvky v obraze.",
            "instrukce": "Myslím si, že…",
            "minDelka": 10,
            "maxDelka": 400
          },
          {
            "id": "text-3",
            "zadani": "V čem se podle vás osvětová akce liší od podobných kampaní v současnosti?",
            "instrukce": "Myslím si, že…",
            "minDelka": 10,
            "maxDelka": 400
          }
        ]
      }
    }
  ]
}