{
  "cviceni": {
    "version": {
      "global": "<%= version %>",
      "content": 2
    },
    "katalog": [
      "public"
    ],
    "language": "cs",
    "slug": "jak-vnimali-boxersky-zapas",
    "nazev": "Jak vnímali boxerský zápas?",
    "autor": [
      "Josef Řídký"
    ],
    "klicovaSlova": {
      "rvp": [
        "sport",
        "zábava"
      ],
      "koncept": [
        "každodennost"
      ],
      "b4": [
        "dobové perspektivy"
      ],
      "historylab": [
        "porovnáváme zdroje"
      ]
    },
    "casovaOsa": {
      "roky": [
        1931
      ],
      "epochy": [
        {
          "nazev": "ceska",
          "obdobi": [
            "první Československá republika"
          ]
        },
        {
          "nazev": "svetova",
          "obdobi": [
            ""
          ]
        }
      ]
    },
    "anotace": {
      "ucitel": "Žáci poslouchají ukázku rozhlasového přenosu z boxerského zápasu z roku 1931. Srovnávají zvukový záznam utkání se zprávou v tisku a uvědomují si, jak zprostředkující médium ovlivňuje vyznění informací.",
      "verejna": "Máte představu, jak vypadalo sportovní zpravodajství před téměř sto lety? Zkuste se zamyslet nad tím, jak mohli lidé vnímat boxerský zápas v době prvních rozhlasových přenosů."
    },
    "trvani": 25,
    "obtiznost": "nízká",
    "funkce": [
      "lupa",
      "cteni",
      "text",
      "audio",
      "svg"
    ],
    "pdf": {
      "doporucenyPostup": "jak-vnimali-boxersky-zapas.pdf"
    },
    "uvodniObrazek": "jak-vnimali-boxersky-zapas/pic-00-1280w.jpg",
    "id": 79
  },
  "slajd": [
    {
      "class": "half-slide-previous",
      "zadani": {
        "hlavni": "Poslechněte si záznam zápasu a prohlédněte si fotografie.",
        "rozsirujici": ""
      },
      "napoveda": {
        "aktivity": [
          "lupa",
          "audio"
        ],
        "text": "Při kliknutí levým tlačítkem do obrazu lupa přiblíží část obrazu ve výřezu."
      },
      "media": {
        "nastaveni": {
          "vzhled": "normalni",
          "layout": "velka-galerie"
        },
        "soubory": [
          {
            "soubor": "jak-vnimali-boxersky-zapas/audio-00.mp3",
            "nazev": "Záznam ze zápasu Alvarela proti Nekolnému",
            "popisek": "Zápas z 26. dubna 1931, začátek 10. kola, komentuje Josef Laufer. Zdroj: Archiv ČRo"
          }
        ],
        "galerie": [
          {
            "soubor": "jak-vnimali-boxersky-zapas/pic-00-1280w.jpg",
            "popisek": "Zápas Alvarel proti Nekolnému, 26. dubna 1931. Zdroj: Archiv NM, pozůstalost Františka Illka"
          },
          {
            "soubor": "jak-vnimali-boxersky-zapas/pic-01-1280w.jpg",
            "popisek": "Zápas Alvarel proti Nekolnému, 26. dubna 1931. Zdroj: Archiv NM, pozůstalost Františka Illka"
          }
        ]
      }
    },
    {
      "class": "half-slide-active",
      "zadani": {
        "hlavni": "Vyznačte a napište do obrázku, co jste se z rozhlasu dozvěděli o zápase.",
        "rozsirujici": "Jak o zápase hlasatelé informují?"
      },
      "napoveda": {
        "aktivity": [
          "svg"
        ],
        "text": "Kliknutím na snímek levým tlačítkem myši označujete bod. Nakliknutím na bod pravým tlačítkem otevřete menu s nabídkou úkonů: změnit barvu bodu, (T) doplnit textový komentář, (X) smazat nakliknutý objekt."
      },
      "svg": {
        "soubory": [
          {
            "id": "svg-1",
            "soubor": "jak-vnimali-boxersky-zapas/pic-00-1024w.jpg",
            "funkce": [
              "text",
              "znacky"
            ]
          }
        ]
      },
      "popisky": [
        "Zápas Alvarel proti Nekolnému, 26. dubna 1931. Zdroj: Archiv NM, pozůstalost Františka Illka"
      ]
    },
    {
      "zadani": {
        "hlavni": "Přečtěte si záznam 10. kola zápasu.",
        "rozsirujici": "Jak o zápase informují noviny? Všimněte si data vydání."
      },
      "napoveda": {
        "aktivity": [
          "svg"
        ],
        "text": "Kliknutím na snímek levým tlačítkem myši označujete bod. Nakliknutím na bod pravým tlačítkem otevřete menu s nabídkou úkonů: změnit barvu bodu, (T) doplnit textový komentář, (X) smazat nakliknutý objekt."
      },
      "svg": {
        "soubory": [
          {
            "id": "svg-2",
            "soubor": "jak-vnimali-boxersky-zapas/pic-02-1024w.jpg",
            "funkce": [
              "text",
              "znacky"
            ]
          }
        ]
      },
      "popisky": [
        "Národní politika, odpolední vydání, 27. dubna 1931. Zdroj: NK ČR"
      ]
    },
    {
      "zadani": {
        "hlavni": "Srovnejte zvukový záznam s novinovou zprávou o zápase.",
        "rozsirujici": "Vyberte  klíčová slova, která vystihují záznam a zprávu po formální a obsahové stránce."
      },
      "napoveda": {
        "aktivity": [
          "lupa",
          "audio"
        ],
        "text": "Při kliknutí levým tlačítkem do obrazu lupa přiblíží část obrazu ve výřezu."
      },
      "media": {
        "nastaveni": {
          "vzhled": "normalni",
          "layout": "velka-galerie"
        },
        "soubory": [
          {
            "soubor": "jak-vnimali-boxersky-zapas/audio-00.mp3",
            "nazev": "Záznam ze zápasu Alvarela proti Nekolnému",
            "popisek": "Zápas z 26. dubna 1931, začátek 10. kola, komentuje Josef Laufer. Zdroj: Archiv ČRo"
          }
        ],
        "galerie": [
          {
            "typ": "svg",
            "popisek": "Národní politika, odpolední vydání, 27. dubna 1931. Zdroj: NK ČR",
            "objekt": {
              "id": "svg-3-duplicated",
              "soubor": "jak-vnimali-boxersky-zapas/pic-02-1024w.jpg",
              "duplikovat": [
                "svg-2"
              ]
            }
          }
        ]
      },
      "klicovaSlova": {
        "klicovaSlova": [
          {
            "id": "klicova-slova-1",
            "funkce": "selekce+",
            "tagy": [
              {
                "id": 1,
                "text": "Okamžité"
              },
              {
                "id": 2,
                "text": "Opožděné"
              },
              {
                "id": 3,
                "text": "Napínavé"
              },
              {
                "id": 4,
                "text": "Klidné"
              },
              {
                "id": 5,
                "text": "Detailní"
              },
              {
                "id": 6,
                "text": "Obecné"
              },
              {
                "id": 7,
                "text": "Aktuální"
              },
              {
                "id": 8,
                "text": "Neaktuální"
              },
              {
                "id": 9,
                "text": "Emocionální"
              },
              {
                "id": 10,
                "text": "Věcné"
              }
            ]
          },
          {
            "id": "klicova-slova-2",
            "funkce": "selekce+",
            "tagy": [
              {
                "id": 1,
                "text": "Okamžité"
              },
              {
                "id": 2,
                "text": "Opožděné"
              },
              {
                "id": 3,
                "text": "Napínavé"
              },
              {
                "id": 4,
                "text": "Klidné"
              },
              {
                "id": 5,
                "text": "Detailní"
              },
              {
                "id": 6,
                "text": "Obecné"
              },
              {
                "id": 7,
                "text": "Aktuální"
              },
              {
                "id": 8,
                "text": "Neaktuální"
              },
              {
                "id": 9,
                "text": "Emocionální"
              },
              {
                "id": 10,
                "text": "Věcné"
              }
            ]
          }
        ]
      }
    },
    {
      "zadani": {
        "hlavni": "Odpovězte na otázky.",
        "rozsirujici": ""
      },
      "napoveda": {
        "aktivity": [
          "text"
        ],
        "text": "Do boxu pro text zapisujete odpověď na otázku, nebo jiný komentář (dle zadání)."
      },
      "uzivatelskyText": {
        "otazky": [
          {
            "id": "otazka-1",
            "zadani": "Jak vnímali zápas čtenáři a jak posluchači?",
            "instrukce": "Myslím, že...",
            "minDelka": 10,
            "maxDelka": 400
          },
          {
            "id": "otazka-2",
            "zadani": "V čem se liší způsob, jak informuje rádio a jak informuje tisk?",
            "instrukce": "Rádio informuje…\n\nTisk informuje…",
            "minDelka": 10,
            "maxDelka": 400
          }
        ]
      }
    }
  ]
}