{
  "cviceni": {
    "version": {
      "global": "<%= version %>",
      "content": 1
    },
    "katalog": ["test"],
    "language": "cs",
    "slug": "mladi-jana-husa",
    "nazev": "Mládí Jana Husa",
    "autor": [""],
    "klicovaSlova": {
      "rvp": [],
      "koncept": [],
      "b4": [],
      "historylab": []
    },
    "casovaOsa": {
      "roky": [],
      "epochy": [
        {
          "nazev": "ceska",
          "obdobi": [
            ""
          ]
        },
        {
          "nazev": "svetova",
          "obdobi": [
            ""
          ]
        }
      ]
    },
    "anotace": {
      "ucitel": "",
      "verejna": "Cvičení se zabývá možnostmi popisu mládí Jana Husa a hranicemi historické vědy."
    },
    "trvani": 30,
    "obtiznost": "",
    "funkce": ["lupa", "cteni", "text", "text-editor", "analyticka-tabulka"],
    "pdf": {
      "doporucenyPostup": "mladi-jana-husa.pdf"
    },
    "uvodniObrazek": "mladi-jana-husa/pic-00-800w.jpg",
    "id": 53
  },
  "slajd": [
    {
      "class": ["half-slide-previous"],
      "zadani": {
        "hlavni": "Přečtěte si text a označte pasáže, které se týkají rodiště a původu Jana Husa.",
        "rozsirujici": ""
      },
      "napoveda": {
        "aktivity": ["text-editor"],
        "text": "Levým tlačítkem myši zabarvíte zvolené slovo nebo slovní spojení. Otevře se vám nabídka, v níž zvolíte označovanou kategorii. Křížkem lze označení smazat."
      },
      "textovyEditor": {
        "texty": [
          {
            "id": 0,
            "text": "text-00",
            "funkce": "zvyraznovani",
            "menu": [
              {
                "title": "Rodiště a původ",
                "commandName": "smahel-rodiste",
                "color": "red"
              }
            ]
          }
        ]
      }
    },
    {
      "class": ["half-slide-active"],
      "zadani": {
        "hlavni": "Přečtěte druhý si text a označte pasáže, které se týkají rodiště a původu Jana Husa.",
        "rozsirujici": ""
      },
      "napoveda": {
        "aktivity": ["text-editor"],
        "text": "Levým tlačítkem myši zabarvíte zvolené slovo nebo slovní spojení. Otevře se vám nabídka, v níž zvolíte označovanou kategorii. Křížkem lze označení smazat."
      },
      "textovyEditor": {
        "texty": [
          {
            "id": 1,
            "text": "text-01",
            "funkce": "zvyraznovani",
            "menu": [
              {
                "title": "Rodiště a původ",
                "commandName": "vondruska-rodiste",
                "color": "orange"
              }
            ]
          }
        ]
      }
    },
    {
      "zadani": {
        "hlavni": "Určete, který z textů odpovídá dané charakteristice více.",
        "rozsirujici": ""
      },
      "napoveda": {
        "aktivity": ["analyticka-tabulka"],
        "text": "Vyberte jednu z možností."
      },
      "testKviz": {
        "id": "table-testKviz-1",

        "zadani": [
          {
            "otazka": "Tento text je zábavnější.",
            "odpovedi": [
              {
                "text": "Text A"
              },
              {
                "text": "Text B"
              }
            ]
          },
          {
            "otazka": "Tento text má pravděpodobně větší oporu v pramenech.",
            "odpovedi": [
              {
                "text": "Text A"
              },
              {
                "text": "Text B"
              }
            ]
          },
          {
            "otazka": "O světě Jana Husa se toho z textu dozvíme více.",
            "odpovedi": [
              {
                "text": "Text A"
              },
              {
                "text": "Text B"
              }
            ]
          },
          {
            "otazka": "Život ve středověku je čtenáři přiblížen jasněji.",
            "odpovedi": [
              {
                "text": "Text A"
              },
              {
                "text": "Text B"
              }
            ]
          },
          {
            "otazka": "Jde o historiografický text.",
            "odpovedi": [
              {
                "text": "Text A"
              },
              {
                "text": "Text B"
              }
            ]
          }
        ]
      }
    },
    {
      "zadani": {
        "hlavni": "Zodpovězte následující otázky k textům.",
        "rozsirujici": "František Šmahel: Jan Hus. Život a dílo. Praha, 2013.<br>Vlastimil Vondruška: Husitská epopej I. Brno, 2014."
      },
      "napoveda": {
        "aktivity": ["text"],
        "text": "Do boxu pro text zapisujete odpověď na otázku, nebo jiný komentář (dle zadání)."
      },
      "uzivatelskyText": {
        "novaTabulka": {
          "tabulky": [
            {
              "id": "nova-tabulka-1",
              "dataFrom": ["textovy-editor-0", "textovy-editor-1"],
              "columns": [
                {
                  "id": "uryvky",
                  "name": "",
                  "type": "",
                  "bg-color": "",
                  "values": []
                }
              ],
              "rows": [
                {
                  "id": "smahel-rodiste",
                  "name": "Rodiště a původ Jana Husa podle F. Šmahela (Text A)",
                  "type": {
                    "name": "dup-text",
                    "type": "tag"
                  },
                  "bg-color": "",
                  "values": []
                },
                {
                  "id": "vondruska-rodiste",
                  "name": "Rodiště a původ Jana Husa podle V. Vondrušky (Text B)",
                  "type": {
                    "name": "dup-text",
                    "type": "tag"
                  },
                  "bg-color": "",
                  "values": []
                }
              ]
            }
          ]
        },
        "otazky": [
          {
            "id": "text-1",
            "zadani": "Liší se v textech obraz Husova rodiště? Pokud ano, tak jak?",
            "instrukce": "Myslím si, že…",
            "minDelka": 10,
            "maxDelka": 500
          },
          {
            "id": "text-2",
            "zadani": "Jakou roli hrají v textech prameny?",
            "instrukce": "Myslím si, že…",
            "minDelka": 10,
            "maxDelka": 500
          },
          {
            "id": "text-3",
            "zadani": "Zkuste najít a popsat některé společné rysy obou textů.",
            "instrukce": "Myslím si, že…",
            "minDelka": 10,
            "maxDelka": 500
          }
        ]
      }
    },
    {
      "zadani": {
        "hlavni": "Zodpovězte závěrečnou otázku.",
        "rozsirujici": ""
      },
      "napoveda": {
        "aktivity": ["text"],
        "text": "Do boxu pro text zapisujete odpověď na otázku, nebo jiný komentář (dle zadání)."
      },
      "uzivatelskyText": {
        "otazky": [
          {
            "id": "text-4",
            "zadani": "Co podle vás zakládá vědeckost textu?",
            "instrukce": "Myslím si, že…",
            "minDelka": 10,
            "maxDelka": 500
          }
        ]
      }
    }
  ]
}
