{
  "cviceni": {
    "version": {
      "global": "<%= version %>",
      "content": 3
    },
    "katalog": [
      "test",
      "public"
    ],
    "language": "cs",
    "slug": "proc-vytvareli-mapu",
    "nazev": "Proč vytvářeli mapu?",
    "autor": [
      "Michal Kurz"
    ],
    "klicovaSlova": {
      "rvp": [
        "Československo 50. léta"
      ],
      "koncept": [
        "propaganda",
        "symboly"
      ],
      "b4": [
        "dobové perspektivy"
      ],
      "historylab": [
        "hledáme klíčové detaily"
      ]
    },
    "casovaOsa": {
      "roky": [
        1956
      ],
      "epochy": [
        {
          "nazev": "ceska",
          "obdobi": [
            "poválečná doba a nástup komunismu"
          ]
        },
        {
          "nazev": "svetova",
          "obdobi": [
            ""
          ]
        }
      ]
    },
    "anotace": {
      "ucitel": "Cvičení pracuje s výtvarně zpracovanou mapou ČSR Velké stavby druhé pětiletky z roku 1956. Žáci označují a popisují její jednotlivé emblémy a výběrem z připravených pojmů charakterizují stát, který znázorňuje. S pomocí doplňujících údajů odhadují, jakému účelu mohla v kontextu doby svého vzniku sloužit. Cvičení lze využít k přiblížení obecných pojmů souvisejících se socioekonomickými proměnami ČSR po Únoru 1948 (industrializace, pětiletý plán, centrálně plánovaná ekonomika).",
      "verejna": "Tahle mapa vypadá opravdu zajímavě - je barevná a plná obrázků! Ale kdo a proč ji vlastně vytvořil? Pečlivě si mapu prohlédněte a popište co nejvíce prvků, které na ní objevíte. Dokážete zjistit, co nám její autoři chtěli říct o poválečném Československu? Každý detail může být důležitý!"
    },
    "trvani": 30,
    "obtiznost": "střední",
    "funkce": [
      "lupa",
      "text",
      "svg",
      "kresleni"
    ],
    "pdf": {
      "doporucenyPostup": "proc-vytvareli-mapu.pdf"
    },
    "uvodniObrazek": "proc-vytvareli-mapu/pic-00-2000w.jpg",
    "id": 47
  },
  "slajd": [
    {
      "zadani": {
        "hlavni": "Prohlédněte si mapu.",
        "rozsirujici": ""
      },
      "napoveda": {
        "aktivity": [
          "lupa"
        ],
        "text": "Při kliknutí levým tlačítkem do obrazu lupa přiblíží část obrazu ve výřezu."
      },
      "prameny": [
        "proc-vytvareli-mapu/pic-00-2000w.jpg"
      ]
    },
    {
      "class": [
        "half-slide-previous"
      ],
      "zadani": {
        "hlavni": "Vyznačte na mapě váš region. Označte a popište, co se ve vašem regionu podle mapy nachází.",
        "rozsirujici": ""
      },
      "napoveda": {
        "aktivity": [
          "svg"
        ],
        "text": "Tahem myši levým tlačítkem kreslíte do obrazu. Nakliknutím na nakreslený tvar pravým tlačítkem otevřete menu s nabídkou úkonů: změnit barvu tvaru, (T) doplnit textový komentář, (X) smazat nakliknutý objekt."
      },
      "svg": {
        "soubory": [
          {
            "id": "svg-1",
            "soubor": "proc-vytvareli-mapu/pic-00-1280w.jpg",
            "funkce": [
              "text",
              "kresleni"
            ]
          }
        ]
      }
    },
    {
      "class": [
        "half-slide-active",
        "half-slide-previous"
      ],
      "zadani": {
        "hlavni": "Které pojmy nejvýstižněji charakterizují Československo na mapě?",
        "rozsirujici": "Pomocí zvětšování a zmenšování určete důležitost vybraných pojmů."
      },
      "napoveda": {
        "aktivity": [
          "word-cloud"
        ],
        "text": "Klikáním na znaménka -/+ zmenšujte či zdůrazňujte důležitost."
      },
      "klicovaSlova": {
        "klicovaSlova": [
          {
            "id": "klicova-slova-1",
            "funkce": "wordcloud",
            "tagy": [
              {
                "text": "péče o historické památky"
              },
              {
                "text": "lidová kultura"
              },
              {
                "text": "technický pokrok"
              },
              {
                "text": "socialistické státní zřízení"
              },
              {
                "text": "ochrana přírody"
              },
              {
                "text": "prosperita"
              }
            ]
          }
        ]
      }
    },
    {
      "class": [
        "half-slide-active"
      ],
      "zadani": {
        "hlavni": "Co mapa vypovídá o tehdejším Československu?",
        "rozsirujici": ""
      },
      "napoveda": {
        "aktivity": [
          "text"
        ],
        "text": "Do boxu pro text zapisujete odpověď na otázku, nebo jiný komentář (dle zadání)."
      },
      "uzivatelskyText": {
        "otazky": [
          {
            "id": "text-1",
            "zadani": "",
            "instrukce": "Myslím si, že…",
            "minDelka": 2,
            "maxDelka": 400
          }
        ]
      }
    },
    {
      "class": [
        "half-slide-previous"
      ],
      "zadani": {
        "hlavni": "Přečtěte si popisku k mapě.",
        "rozsirujici": ""
      },
      "napoveda": {
        "aktivity": [
          "lupa"
        ],
        "text": "Při kliknutí levým tlačítkem do obrazu lupa přiblíží část obrazu ve výřezu."
      },
      "popisky": [
        "Originální rozměr: 101 x 54 cm <br> Vydavatel: Ministerstvo školství a kultury, Praha 1956 <br> Výtvarník: P. Béza <br> Zdroj: Archiv města Ostravy"
      ],
      "prameny": [
        "proc-vytvareli-mapu/pic-00-2000w.jpg"
      ]
    },
    {
      "class": [
        "half-slide-active"
      ],
      "zadani": {
        "hlavni": "Odpovězte na otázky.",
        "rozsirujici": ""
      },
      "napoveda": {
        "aktivity": [
          "text"
        ],
        "text": "Do boxu pro text zapisujete odpověď na otázku, nebo jiný komentář (dle zadání)."
      },
      "uzivatelskyText": {
        "otazky": [
          {
            "id": "text-2",
            "zadani": "Proč Ministerstvo školství a kultury vytvořilo tuto mapu?",
            "instrukce": "Myslím si, že…",
            "minDelka": 2,
            "maxDelka": 400
          },
          {
            "id": "text-3",
            "zadani": "Kdo a k jakému účelu ji mohl používat?",
            "instrukce": "Myslím si, že…",
            "minDelka": 2,
            "maxDelka": 400
          }
        ]
      }
    }
  ]
}