{
  "cviceni": {
    "version": {
      "global": "<%= version %>",
      "content": 2
    },
    "katalog": [
      "public"
    ],
    "language": "cs",
    "slug": "co-si-mohli-myslet-lide-v-bufetu",
    "nazev": "Co si mohli myslet lidé v bufetu?",
    "autor": [
      "Petr Sedlák"
    ],
    "klicovaSlova": {
      "rvp": [
        "totalitní režimy"
      ],
      "koncept": [
        "každodennost"
      ],
      "b4": [
        "dobové perspektivy"
      ],
      "historylab": [
        "otevíráme otázku"
      ]
    },
    "casovaOsa": {
      "roky": [
        1948
      ],
      "epochy": [
        {
          "nazev": "ceska",
          "obdobi": [
            "poválečná doba a nástup komunismu"
          ]
        },
        {
          "nazev": "svetova",
          "obdobi": [
            ""
          ]
        }
      ]
    },
    "anotace": {
      "ucitel": "Cvičení využívá fotografii ze série každodenních momentek pořízených v Praze dne 25. února 1948. Analýza fotografie cílí na ilustrování všednodennosti života v tento den, kdy ve městě a státě vrcholí převzetí vlády komunisty. Na analýzu pramene navazuje čtení dobového tisku a odborného komentáře, který kontextualizuje politické události. V závěru žáci vytváří hypotézu, co si mohli lidé na fotografii momentálně myslet o probíhající krizi. Cvičení lze spojit s výkladem monopolizace moci v rukou KSČ po skončení druhé světové války.",
      "verejna": "Zdánlivě obyčejná scéna. Muž pojídá v bufetu párek, další dva čtou noviny. Obyčejný den, zdá se. A přece ne tak docela. Píše se 25. únor 1948. Za okny bufetu, na Václavském náměstí v Praze, se právě shromažďují tisíce lidí, aby se staly hybateli událostí, které ovlivní budoucnost republiky. Připomeňte si, co se tehdy stalo! Dokážete se vcítit do postav na fotografii a navrhnout, co si o tom všem nejspíše myslely?"
    },
    "trvani": 30,
    "obtiznost": "střední",
    "funkce": [
      "lupa",
      "cteni",
      "text",
      "svg",
      "znacky"
    ],
    "pdf": {
      "doporucenyPostup": "co-si-mohli-myslet-lide-v-bufetu.pdf"
    },
    "uvodniObrazek": "co-si-mohli-myslet-lide-v-bufetu/pic-00-1280w.jpg",
    "id": 78
  },
  "slajd": [
    {
      "zadani": {
        "hlavni": "Prohlédněte si fotografii.",
        "rozsirujici": ""
      },
      "napoveda": {
        "aktivity": [
          "lupa"
        ],
        "text": "Při kliknutí levým tlačítkem do obrazu lupa přiblíží část obrazu ve výřezu."
      },
      "prameny": [
        "co-si-mohli-myslet-lide-v-bufetu/pic-00-1280w.jpg"
      ],
      "popisky": [
        "Praha, Václavské náměstí, bufet Koruna, 25. února 1948. Foto: Ladislav Kandelar. Zdroj: ČTK"
      ]
    },
    {
      "zadani": {
        "hlavni": "Označte důležité prvky na fotografii a popište je.",
        "rozsirujici": ""
      },
      "napoveda": {
        "aktivity": [
          "svg"
        ],
        "text": "Kliknutím na snímek levým tlačítkem myši označujete bod. Nakliknutím na bod pravým tlačítkem otevřete menu s nabídkou úkonů: (T) doplnit textový komentář, (X) smazat nakliknutý objekt."
      },
      "svg": {
        "soubory": [
          {
            "id": "svg-1",
            "soubor": "co-si-mohli-myslet-lide-v-bufetu/pic-00-1024w.jpg",
            "barvy": [
              "blue"
            ],
            "funkce": [
              "text",
              "znacky"
            ]
          }
        ]
      },
      "popisky": [
        "Praha, Václavské náměstí, bufet Koruna, 25. února 1948. Foto: Ladislav Kandelar. Zdroj: ČTK"
      ]
    },
    {
      "zadani": {
        "hlavni": "Prozkoumejte další prameny. Nově zjištěné informace doplňte do fotografie červeně.",
        "rozsirujici": ""
      },
      "napoveda": {
        "aktivity": [
          "svg"
        ],
        "text": "Kliknutím na snímek levým tlačítkem myši označujete bod. Nakliknutím na bod pravým tlačítkem otevřete menu s nabídkou úkonů: (T) doplnit textový komentář, (X) smazat nakliknutý objekt."
      },
      "svg": {
        "nastaveni": {
          "layout": "velka-galerie"
        },
        "galerie": [
          {
            "typ": "text",
            "objekt": "Deník Revolučního odborového hnutí Práce, jehož zvláštní vydání z odpoledne 25. 2. 1948 drží muž na fotografii, se prezentoval jako zdánlivě nestranný deník „pracujícího lidu”, ve skutečnosti však prosazoval stanovisko KSČ. Zdroj: Petr Sedlák, ÚSTR."
          },
          {
            "soubor": "co-si-mohli-myslet-lide-v-bufetu/pic-01-1280w.jpg",
            "popisek": "Práce 25. 2. 1948, druhé (zvláštní) vydání. Zdroj: Knihovna Národního muzea v Praze"
          },
          {
            "soubor": "co-si-mohli-myslet-lide-v-bufetu/pic-02-1280w.jpg",
            "popisek": "Práce 25. 2. 1948, druhé (zvláštní) vydání. Zdroj: Knihovna Národního muzea v Praze"
          },
          {
            "soubor": "co-si-mohli-myslet-lide-v-bufetu/pic-03-1280w.jpg",
            "popisek": "Práce 25. 2. 1948, druhé (zvláštní) vydání. Zdroj: Knihovna Národního muzea v Praze"
          },
          {
            "soubor": "co-si-mohli-myslet-lide-v-bufetu/pic-04-1024h.jpg",
            "popisek": "Praha, Václavské náměstí, 25. února 1948. Foto: Alexandr Hampl. Zdroj: ČTK."
          },
          {
            "typ": "text",
            "objekt": "Početný dav očekával na náměstí od odpoledních hodin výsledky jednání předsedy KSČ Gottwalda s prezidentem (zahájeno v 16:15). KSČ požadovala, aby prezident přijal návrh, který by jí umožnil vyloučit ze společné vlády ostatní politické strany.  V opačném případě se měl dav vypravit demonstrovat na Pražský hrad. Zároveň KSČ čtvrtý den v řadě stupňovala silové kroky, kterými si pojistila moc v zemi, mj. ovládla opoziční redakce novin.  Zdroj: Petr Sedlák, ÚSTR."
          }
        ],
        "soubory": [
          {
            "id": "svg-2",
            "soubor": "co-si-mohli-myslet-lide-v-bufetu/pic-00-1024w.jpg",
            "duplikovat": [
              "svg-1"
            ],
            "funkce": [
              "text",
              "znacky"
            ],
            "barvy": [
              "red"
            ]
          }
        ]
      },
      "popisky": [
        "Praha, Václavské náměstí, bufet Koruna, 25. února 1948. Foto: Ladislav Kandelar. Zdroj: ČTK"
      ]
    },
    {
      "zadani": {
        "hlavni": "Co si lidé v bufetu mohli myslet o probíhající politické krizi?",
        "rozsirujici": "Myšlenky formulujte z pohledu osob. Využijte informace, které jste získali na předchozím slajdu."
      },
      "napoveda": {
        "aktivity": [
          "svg"
        ],
        "text": "Kliknutím na snímek levým tlačítkem myši označujete bod. Nakliknutím na bod pravým tlačítkem otevřete menu s nabídkou úkonů: změnit barvu bodu, (T) doplnit textový komentář, (X) smazat nakliknutý objekt."
      },
      "svg": {
        "nastaveni": {
          "layout": "velka-galerie"
        },
        "galerie": [
          {
            "typ": "svg",
            "objekt": {
              "id": "svg-2-duplicated",
              "soubor": "co-si-mohli-myslet-lide-v-bufetu/pic-00-1024w.jpg",
              "duplikovat": [
                "svg-2"
              ]
            },
            "popiska": "Zdroj: Humoristický časopis Dikobraz IV./1948, č. 48"
          }
        ],
        "soubory": [
          {
            "id": "svg-3",
            "soubor": "co-si-mohli-myslet-lide-v-bufetu/pic-00-1024w.jpg",
            "funkce": [
              "text",
              "znacky",
              "komiks"
            ],
            "komiks": [
              {
                "kategorie": "text",
                "subkategorie": "myslenka",
                "label": "muž nalevo",
                "pozice": [
                  20,
                  90
                ]
              },
              {
                "kategorie": "text",
                "subkategorie": "myslenka",
                "label": "muž s novinami",
                "pozice": [
                  200,
                  300
                ]
              },
              {
                "kategorie": "text",
                "subkategorie": "myslenka",
                "label": "prodavačky",
                "pozice": [
                  450,
                  115
                ]
              },
              {
                "kategorie": "text",
                "subkategorie": "myslenka",
                "label": "muž s párkem",
                "pozice": [
                  675,
                  30
                ]
              }
            ]
          }
        ]
      },
      "popisky": [
        "Praha, Václavské náměstí, bufet Koruna, 25. února 1948. Foto: Ladislav Kandelar. Zdroj: ČTK"
      ]
    }
  ]
}