{
  "cviceni": {
    "version": {
      "global": "<%= version %>",
      "content": 1
    },
    "katalog": [
      "test"
    ],
    "language": "cs",
    "slug": "co-kluci-provedli",
    "nazev": "Co kluci provedli?",
    "autor": [
      "Kamil Činátl"
    ],
    "klicovaSlova": {
      "rvp": [
        "vznik ČSR"
      ],
      "koncept": [
        "symboly"
      ],
      "b4": [
        "dobové perspektivy"
      ],
      "historylab": [
        "formulujeme a ověřujeme hypotézu"
      ]
    },
    "casovaOsa": {
      "roky": [
        1918
      ],
      "epochy": [
        {
          "nazev": "ceska",
          "obdobi": [
            "Habsburská monarchie a její rozpad"
          ]
        },
        {
          "nazev": "svetova",
          "obdobi": [
            ""
          ]
        }
      ]
    },
    "anotace": {
      "ucitel": "Žáci zkoumají fotografii, která zachycuje dospívající chlapce, jak 28. října 1918 cosi provádějí s poštovní schránkou. Žáci zaujímají dobovou perspektivu, vnímají historický kontext rozpadu monarchie a s pomocí dalších pramenů formulují hypotézy ohledně účelu jednání chlapců. Politickou změnu nahlížejí z generačně blízké perspektivy.",
      "verejna": "Co dělají chlapci na fotce z 28. října 1918? Provádí nějakou lotrovinu, nebo jejich jednání souvisí s rozpadem monarchie a vznikem Československa? Zkuste to vypátrat s pomocí dalších pramenů."
    },
    "trvani": 20,
    "obtiznost": "nízká",
    "funkce": [
      "lupa",
      "cteni",
      "text",
      "svg",
      "znacky"
    ],
    "pdf": {
      "doporucenyPostup": "co-kluci-provedli.pdf"
    },
    "uvodniObrazek": "co-kluci-provedli/pic-00-1024w.jpg",
    "id": 89
  },
  "slajd": [
    {
      "zadani": {
        "hlavni": "Prohlédněte si fotografii.",
        "rozsirujici": ""
      },
      "napoveda": {
        "aktivity": [
          "lupa"
        ],
        "text": "Při kliknutí levým tlačítkem do obrazu lupa přiblíží část obrazu ve výřezu."
      },
      "prameny": [
        "co-kluci-provedli/pic-00-1024w.jpg"
      ],
      "popisky": [
        "Poštovní schránka, Kolín, 28. října 1918. Foto František Krátký. Zdroj: Archiv Pavla Schefleura"
      ]
    },
    {
      "class": [
        "half-slide-previous"
      ],
      "zadani": {
        "hlavni": "Označte na fotografii důležité prvky, které pomohou určit, co se na ní děje.",
        "rozsirujici": ""
      },
      "napoveda": {
        "aktivity": [
          "svg"
        ],
        "text": "Kliknutím na snímek levým tlačítkem myši označujete bod. Nakliknutím na bod pravým tlačítkem otevřete menu s nabídkou úkonů: (T) doplnit textový komentář, (X) smazat nakliknutý objekt."
      },
      "svg": {
        "soubory": [
          {
            "id": "svg-1",
            "soubor": "co-kluci-provedli/pic-00-1024w.jpg",
            "barvy": [
              "blue"
            ],
            "funkce": [
              "text",
              "znacky"
            ]
          }
        ]
      },
      "popisky": [
        "Poštovní schránka, Kolín, 28. října 1918. Foto František Krátký. Zdroj: Archiv Pavla Schefleura"
      ]
    },
    {
      "class": [
        "half-slide-active"
      ],
      "zadani": {
        "hlavni": "Co se děje na fotografii?",
        "rozsirujici": ""
      },
      "napoveda": {
        "aktivity": [
          "text"
        ],
        "text": "Do boxu pro text zapisujete odpověď na otázku, nebo jiný komentář (dle zadání)."
      },
      "uzivatelskyText": {
        "otazky": [
          {
            "id": "text-1",
            "zadani": "Odhadněte, co dělají kluci na snímku?",
            "instrukce": "Myslím si, že…",
            "minDelka": 2,
            "maxDelka": 400
          }
        ]
      }
    },
    {
      "class": [
        "half-slide-previous"
      ],
      "zadani": {
        "hlavni": "Prozkoumejte další prameny. Nově zjištěné informace doplňte do fotografie červeně.",
        "rozsirujici": ""
      },
      "napoveda": {
        "aktivity": [
          "svg"
        ],
        "text": "Kliknutím na snímek levým tlačítkem myši označujete bod. Nakliknutím na bod pravým tlačítkem otevřete menu s nabídkou úkonů: (T) doplnit textový komentář, (X) smazat nakliknutý objekt."
      },
      "svg": {
        "nastaveni": {
          "layout": "velka-galerie"
        },
        "galerie": [
          {
            "soubor": "co-kluci-provedli/pic-01-1280w.jpg",
            "popisek": "Občané Kolína pózují před fotografem se symboly rakousko-uherské monarchie, které strhli z veřejných budov, 28. října 1918. Foto František Krátký. Zdroj: Archiv Pavla Schefleura"
          },
          {
            "soubor": "co-kluci-provedli/pic-02-1280w.jpg",
            "popisek": "Občané Kolína pózují před fotografem se symboly rakousko-uherské monarchie, které strhli z veřejných budov, 28. října 1918. Foto František Krátký. Zdroj: Archiv Pavla Schefleura"
          },
          {
            "soubor": "co-kluci-provedli/pic-03-1024h.jpg",
            "popisek": "Rakousko-uherské poštovní schránky byly označeny státním symbolem rakouské orlice. Foto Martin Váňa. Zdroj: archiv autora"
          },
          {
            "soubor": "co-kluci-provedli/pic-04-1280w.jpg",
            "popisek": "Kolínské listy, 31. října 1918. Zdroj: Národní knihovna Praha"
          },
          {
            "soubor": "co-kluci-provedli/pic-05-1280w.jpg",
            "popisek": "Kolínské listy, 31. října 1918. Zdroj: Národní knihovna Praha"
          },
          {
            "soubor": "co-kluci-provedli/pic-06-1024h.jpg",
            "popisek": "Kolínské listy, 31. října 1918. Zdroj: Národní knihovna Praha"
          }
        ],
        "soubory": [
          {
            "id": "svg-2",
            "soubor": "co-kluci-provedli/pic-00-1024w.jpg",
            "duplikovat": [
              "svg-1"
            ],
            "funkce": [
              "text",
              "znacky"
            ],
            "barvy": [
              "red"
            ]
          }
        ]
      },
      "popisky": [
        "Poštovní schránka, Kolín, 28. října 1918. Foto František Krátký. Zdroj: Archiv Pavla Schefleura"
      ]
    },
    {
      "class": [
        "half-slide-active"
      ],
      "zadani": {
        "hlavni": "Zodpovězte otázky.",
        "rozsirujici": ""
      },
      "napoveda": {
        "aktivity": [
          "text"
        ],
        "text": "Do boxu pro text zapisujete odpověď na otázku, nebo jiný komentář (dle zadání)."
      },
      "uzivatelskyText": {
        "otazky": [
          {
            "id": "text-2",
            "zadani": "Co kluci provedli?",
            "instrukce": "Myslím si, že…",
            "minDelka": 10,
            "maxDelka": 999
          },
          {
            "id": "text-3",
            "zadani": "Proč to udělali?",
            "instrukce": "Myslím si, že…",
            "minDelka": 10,
            "maxDelka": 999
          }
        ]
      }
    }
  ]
}