{
  "cviceni": {
    "version": {
      "global": "<%= version %>",
      "content": 1
    },
    "katalog": [
      "test"
    ],
    "language": "cs",
    "slug": "jakou-zenu-vybrali-pro-reklamu",
    "nazev": "Jakou ženu vybrali pro reklamu?",
    "autor": [
      "Andrea Průchová"
    ],
    "klicovaSlova": {
      "rvp": [
        "technika"
      ],
      "koncept": [
        "umění",
        "symboly"
      ],
      "b4": [
        "trvání a změna"
      ],
      "historylab": [
        "diskutujeme"
      ]
    },
    "casovaOsa": {
      "roky": [
        1900
      ],
      "epochy": [
        {
          "nazev": "ceska",
          "obdobi": [
            "Habsburská monarchie a její rozpad"
          ]
        },
        {
          "nazev": "svetova",
          "obdobi": [
            "Modernizace Evropy a rozmach koloniálních říší"
          ]
        }
      ]
    },
    "anotace": {
      "ucitel": "Cvičení vyzývá žáky k analýze reklamního plakátu ze začátku 20. století, na němž žena propaguje nový technologický vynález fonografu. Žáci jsou vedeni k uvědomění si podobnosti vyobrazené ženy s historickými obrazy múzy hudby Euterpé a k zamyšlení se nad důvody této podobnosti i způsoby zobrazování žen v reklamách minulých a soudobých.",
      "verejna": "K čemu sloužil fonograf a proč se jeho prodejci rozhodli k propagaci nového vynálezu použít obraz právě jedné konkrétní ženy? Pátrejte po jedné z přelomových událostí přelomu 19. a 20. století a zjistěte, že i před více než sto lety fungoval ve společnosti dobře promyšlený „reklamní marketing\"."
    },
    "trvani": 20,
    "obtiznost": "střední",
    "funkce": [
      "lupa",
      "cteni",
      "text",
      "svg",
      "znacky"
    ],
    "pdf": {
      "doporucenyPostup": "jakou-zenu-vybrali-pro-reklamu.pdf"
    },
    "uvodniObrazek": "jakou-zenu-vybrali-pro-reklamu/pic-00-1024h.jpg",
    "id": 99
  },
  "slajd": [
    {
      "zadani": {
        "hlavni": "Prohlédněte si reklamu, která se objevila na veřejnosti okolo roku 1900.",
        "rozsirujici": ""
      },
      "napoveda": {
        "aktivity": [
          "lupa"
        ],
        "text": "Při kliknutí levým tlačítkem do obrazu lupa přiblíží část obrazu ve výřezu."
      },
      "prameny": [
        "jakou-zenu-vybrali-pro-reklamu/pic-00-1024h.jpg"
      ],
      "popisky": [
        "Reklamní plakát, 74x50 cm. Zdroj: UPM Praha"
      ]
    },
    {
      "zadani": {
        "hlavni": "Prozkoumejte další prameny a na jejich základě odpovězte na otázku.",
        "rozsirujici": ""
      },
      "napoveda": {
        "aktivity": [
          "lupa",
          "text"
        ],
        "text": "Do boxu pro text zapisujete odpověď na otázku, nebo jiný komentář (dle zadání)."
      },
      "uzivatelskyText": {
        "galerie": [
          {
            "soubor": "jakou-zenu-vybrali-pro-reklamu/pic-00-1024h.jpg",
            "popisek": "Edisonovy fonografy a zlatolité rekordy, kolem roku 1900. Zdroj: UPM Praha"
          },
          {
            "soubor": "jakou-zenu-vybrali-pro-reklamu/pic-01-1024h.jpg",
            "popisek": "Fonograf, revoluce v oblasti zvuku. Zdroj: www.fahrenheitmagazine.com"
          },
          {
            "soubor": "jakou-zenu-vybrali-pro-reklamu/pic-02-1280w.jpg",
            "popisek": "Zdroj: Etnologický ústav AV ČR"
          },
          {
            "soubor": "jakou-zenu-vybrali-pro-reklamu/pic-03-1280w.jpg",
            "popisek": "Čokoládový fonograf, kolorovaná fotografie, okolo roku 1900. Zdroj: www.bejvavalo.cz"
          }
        ],
        "otazky": [
          {
            "id": "otazka-1",
            "zadani": "Na jaký nový vynález reklama upozorňovala a k čemu přístroj sloužil?",
            "instrukce": "Myslím si, že ...",
            "minDelka": 0,
            "maxDelka": 400
          }
        ]
      }
    },
    {
      "zadani": {
        "hlavni": "Prohlédněte si obrázky a označte prvky, které mají společné. Všechny označené prvky popište.",
        "rozsirujici": ""
      },
      "napoveda": {
        "aktivity": [
          "svg"
        ],
        "text": [
          "Kliknutím na snímek levým tlačítkem myši označujete bod. Nakliknutím na bod pravým tlačítkem otevřete menu s nabídkou úkonů: změnit barvu bodu, (T) doplnit textový komentář, (X) smazat nakliknutý objekt."
        ]
      },
      "svg": {
        "soubory": [
          {
            "id": "svg-1",
            "soubor": "jakou-zenu-vybrali-pro-reklamu/pic-04-1024h.jpg",
            "funkce": [
              "text",
              "znacky"
            ]
          },
          {
            "id": "svg-2",
            "soubor": "jakou-zenu-vybrali-pro-reklamu/pic-05-1024h.jpg",
            "funkce": [
              "text",
              "znacky"
            ]
          },
          {
            "id": "svg-3",
            "soubor": "jakou-zenu-vybrali-pro-reklamu/pic-00-1024h.jpg",
            "funkce": [
              "text",
              "znacky"
            ]
          }
        ]
      },
      "popisky": [
        "Socha Euterpé v postupimském parku Sansoucci. Friedrich Christian Glume: Euterpé, 18. století. Foto Steffen Heilfort. Zdroj: www.britannica.com",
        "Jakub Emannuel Handmann: Euterpé [olej na plátně], 1775. Zdroj: Wikimedia",
        "Edisonovy fonografy a zlatolité rekordy, kolem roku 1900. Zdroj: UPM Praha"
      ]
    },
    {
      "class": [
        "half-slide-previous"
      ],
      "zadani": {
        "hlavni": "Žena na plakátu symbolizuje řeckou múzu hudby Euterpé. Jak na vás postava múzy působí?",
        "rozsirujici": "Vyberte dvě až čtyři charakteristiky."
      },
      "napoveda": {
        "aktivity": [
          "razeni",
          "svg"
        ],
        "text": "Pomocí drag and drop přesouvejte položky z nabídky do obrázku.<br> Do obrázku můžete také kreslit a zapisovat další informace."
      },
      "svg": {
        "pretahovani": {
          "id": "pretahovani-1",
          "items": [
            {
              "objekt": "umění",
              "medium": "tag"
            },
            {
              "objekt": "krása",
              "medium": "tag"
            },
            {
              "objekt": "vznešenost",
              "medium": "tag"
            },
            {
              "objekt": "statečnost",
              "medium": "tag"
            },
            {
              "objekt": "nedostižnost",
              "medium": "tag"
            },
            {
              "objekt": "křehkost",
              "medium": "tag"
            },
            {
              "objekt": "přitažlivost",
              "medium": "tag"
            },
            {
              "objekt": "odvaha",
              "medium": "tag"
            },
            {
              "objekt": "výjimečnost",
              "medium": "tag"
            }
          ]
        },
        "soubory": [
          {
            "id": "svg-4",
            "soubor": "jakou-zenu-vybrali-pro-reklamu/pic-00-1024h.jpg",
            "funkce": [],
            "drop": true
          }
        ]
      }
    },
    {
      "class": [
        "half-slide-active"
      ],
      "zadani": {
        "hlavni": "Proč se autoři reklamy  rozhodli fonograf propagovat prostřednictvím takto vyobrazené ženy?",
        "rozsirujici": "Pomocí zvětšování a zmenšování určete pravděpodobnost jednotlivých důvodů."
      },
      "napoveda": {
        "aktivity": [
          "word-cloud"
        ],
        "text": "Klikáním na znamenka -/+ zmenšujte či zdůrazňujte důležitost."
      },
      "klicovaSlova": {
        "klicovaSlova": [
          {
            "id": "klicova-slova-1",
            "funkce": "wordcloud",
            "tagy": [
              {
                "text": "žena působí přitažlivě"
              },
              {
                "text": "žena symbolizuje řeckou mytologii"
              },
              {
                "text": "žena symbolizuje hudbu"
              },
              {
                "text": "žena působí vznešeně a elegantně"
              },
              {
                "text": "plakáty s ženskými postavami prodávají zboží lépe"
              }
            ]
          }
        ]
      }
    },
    {
      "zadani": {
        "hlavni": "Umístili byste múzu Euterpé na reklamu současné hudební streamovací služby? ",
        "rozsirujici": ""
      },
      "napoveda": {
        "aktivity": [
          "vyber",
          "text"
        ],
        "text": "Výběr provedete kliknutím na položku.<br>Do boxu pro text zapisujete odpověď na otázku, nebo jiný komentář (dle zadání)."
      },
      "vyber": {
        "id": "vyber-1",
        "nastaveni": {
          "layout": "horizontalni",
          "viceOdpovedi": false,
          "disableFeedback": true
        },
        "objekty": [
          {
            "objekt": "ano",
            "medium": "text"
          },
          {
            "objekt": "ne",
            "medium": "text"
          }
        ]
      },
      "uzivatelskyText": {
        "otazky": [
          {
            "id": "otazka-2",
            "zadani": "Zdůvodněte. Pokud ano, v čem by se lišila od múzy a proč?",
            "instrukce": "Myslím si, že ...",
            "minDelka": 0,
            "maxDelka": 400
          }
        ]
      }
    }
  ]
}