{
  "cviceni": {
    "version": {
      "global": "<%= version %>",
      "content": 3
    },
    "katalog": [
      "test",
      "public"
    ],
    "language": "cs",
    "slug": "proc-je-velka-britanie-zemi-caje",
    "nazev": "Proč je Velká Británie zemí čaje?",
    "autor": [
      "Václav Sixta"
    ],
    "klicovaSlova": {
      "rvp": [
        "kolonialismus"
      ],
      "koncept": [],
      "b4": [
        "vztah k minulosti"
      ],
      "historylab": [
        "tvoříme"
      ]
    },
    "casovaOsa": {
      "roky": [
        1888
      ],
      "epochy": [
        {
          "nazev": "ceska",
          "obdobi": [
            ""
          ]
        },
        {
          "nazev": "svetova",
          "obdobi": [
            "Modernizace Evropy a rozmach koloniálních říší"
          ]
        }
      ]
    },
    "anotace": {
      "ucitel": "Žáci pracují s různorodými prameny (fotografie, grafika, malba, mapa) a snaží se osvětlit, proč se vžilo označení Velké Británie jako země čaje. Postupně objevují příběh čaje jako rostliny, suroviny i komodity a nakonec i jako součásti britské kultury. Žáci třídí prameny a hledají souvislosti, aby porozuměli procesu produkce, transportu a konzumace čaje. Dějiny čaje slouží k reflexi kolonialismu, kapitalismu a procesu globalizace.",
      "verejna": "Proč se říká, že Velká Británie je zemí čaje, když na britských ostrovech žádný čaj neroste? Prozkoumejte souvislosti mezi více než sto let starými obrazy či fotografiemi a opravte turistického průvodce."
    },
    "trvani": 45,
    "obtiznost": "vysoká",
    "funkce": [
      "lupa",
      "cteni",
      "text",
      "svg",
      "znacky",
      "pretahovani",
      "kviz"
    ],
    "pdf": {
      "doporucenyPostup": "proc-je-velka-britanie-zemi-caje.pdf"
    },
    "uvodniObrazek": "proc-je-velka-britanie-zemi-caje/pic-00-1024h.jpg",
    "id": 73
  },
  "slajd": [
    {
      "zadani": {
        "hlavni": "Přečtěte si úryvek z průvodce.",
        "rozsirujici": ""
      },
      "napoveda": {
        "aktivity": [
          "lupa",
          "cteni"
        ],
        "text": "Kliknutím levého tlačítka do obrazu a jeho podržením lupa přiblíží část obrazu ve výřezu."
      },
      "textovyEditor": {
        "galerie": [
          {
            "soubor": "proc-je-velka-britanie-zemi-caje/pic-01-1024h.jpg"
          },
          {
            "soubor": "proc-je-velka-britanie-zemi-caje/pic-02-1280w.jpg"
          }
        ],
        "texty": [
          {
            "id": 1,
            "text": "text-00",
            "funkce": "cteni"
          }
        ]
      },
      "popisky": [
        "Zdroj: Neil Wilson a kol.: Poznáváme - Velká Británie: prožijte to nejlepší z Velké Británie, Praha, 2015"
      ]
    },
    {
      "class": [
        "half-slide-previous"
      ],
      "zadani": {
        "hlavni": "Prohlédněte si obraz a doplňte do něj klíčová slova, která nejlépe vyjadřují jeho vyznění.",
        "rozsirujici": ""
      },
      "napoveda": {
        "aktivity": [
          "razeni",
          "svg"
        ],
        "text": "Pomocí drag and drop přesouvejte položky z nabídky do obrázku.<br> Do obrázku můžete také kreslit a zapisovat další informace."
      },
      "svg": {
        "pretahovani": {
          "id": "pretahovani-1",
          "items": [
            {
              "objekt": "bohatství",
              "medium": "tag"
            },
            {
              "objekt": "obchod",
              "medium": "tag"
            },
            {
              "objekt": "Londýn",
              "medium": "tag"
            },
            {
              "objekt": "civilizace",
              "medium": "tag"
            },
            {
              "objekt": "kapitalismus",
              "medium": "tag"
            },
            {
              "objekt": "ticho",
              "medium": "tag"
            },
            {
              "objekt": "hluk",
              "medium": "tag"
            },
            {
              "objekt": "vůně",
              "medium": "tag"
            },
            {
              "objekt": "práce",
              "medium": "tag"
            },
            {
              "objekt": "Angličanka",
              "medium": "tag"
            },
            {
              "objekt": "kolonie",
              "medium": "tag"
            }
          ]
        },
        "soubory": [
          {
            "id": "svg-1",
            "soubor": "proc-je-velka-britanie-zemi-caje/pic-00-1024h.jpg",
            "funkce": [
              "text",
              "znacky"
            ],
            "drop": true
          }
        ]
      },
      "popisky": [
        "James Tissot: Čaj, 1872. Zdroj: Wikimedia Commons"
      ]
    },
    {
      "class": [
        "half-slide-active"
      ],
      "zadani": {
        "hlavni": "Co vypovídá obraz o historii pití čaje ve Velké Británii?",
        "rozsirujici": ""
      },
      "napoveda": {
        "aktivity": [
          "text"
        ],
        "text": "Do boxu pro text zapisujete odpověď na otázku, nebo jiný komentář (dle zadání)."
      },
      "uzivatelskyText": {
        "otazky": [
          {
            "id": "text-1",
            "zadani": "",
            "instrukce": "Myslím si, že…",
            "maxDelka": 400
          }
        ]
      }
    },
    {
      "zadani": {
        "hlavni": "Prohlédněte si rytinu.",
        "rozsirujici": ""
      },
      "napoveda": {
        "aktivity": [
          "lupa"
        ],
        "text": "Při kliknutí levým tlačítkem do obrazu lupa přiblíží část obrazu ve výřezu."
      },
      "prameny": [
        "proc-je-velka-britanie-zemi-caje/pic-05-1024h.jpg"
      ],
      "popisky": [
        "Produkce čaje na Cejlonu, rytina plantážního hospodářství na dnešní Srí Lance, 1888. Zdroj: Alamy Stock Photo <br>Překlad popisek: 1 - Plantážník a sazeč, 2 - Kontrola docházky na pozemku firmy Blackstone, oblast Ambegamowa, 3 - Prořezávání, 4 - Sběr, 5 - Válcování, 6 - Drcení, 7 - Fermentace, 8 - Sušení, 9 - Skládání a třídění, 10 - Skládání na hromadu, 11 - Balení, 12 - Odesílání, 13 - Na nádraží"
      ]
    },
    {
      "zadani": {
        "hlavni": "Vyznačte na rytině důležité prvky a popište je.",
        "rozsirujici": ""
      },
      "napoveda": {
        "aktivity": [
          "svg"
        ],
        "text": [
          "Kliknutím na snímek levým tlačítkem myši označujete bod. Nakliknutím na bod pravým tlačítkem otevřete menu s nabídkou úkonů: změnit barvu bodu, (T) doplnit textový komentář, (X) smazat nakliknutý objekt."
        ]
      },
      "svg": {
        "soubory": [
          {
            "id": "svg-2",
            "soubor": "proc-je-velka-britanie-zemi-caje/pic-03-1024w.jpg",
            "funkce": [
              "text",
              "znacky"
            ]
          },
          {
            "id": "svg-3",
            "soubor": "proc-je-velka-britanie-zemi-caje/pic-04-1024w.jpg",
            "funkce": [
              "text",
              "znacky"
            ]
          }
        ]
      },
      "popisky": [
        "Produkce čaje na Cejlonu, rytina plantážního hospodářství na dnešní Srí Lance, 1888. Zdroj: Alamy Stock Photo <br>Překlad popisek: 1 - Plantážník a sazeč, 2 - Kontrola docházky na pozemku firmy Blackstone, oblast Ambegamowa, 3 - Prořezávání, 4 - Sběr, 5 - Válcování, 6 - Drcení, 7 - Fermentace, 8 - Sušení, 9 - Skládání a třídění, 10 - Skládání na hromadu, 11 - Balení, 12 - Odesílání, 13 - Na nádraží"
      ]
    },
    {
      "zadani": {
        "hlavni": " Co lze na základě rytiny říci o produkci čaje na konci 19. století?",
        "rozsirujici": "Odlište správná a chybná tvrzení."
      },
      "napoveda": {
        "aktivity": [
          "analyticka-tabulka"
        ],
        "text": "Vyberte jednu z možností."
      },
      "testKviz": {
        "id": "table-testKviz-1",
        "galerie": [
          {
            "soubor": "proc-je-velka-britanie-zemi-caje/pic-05-1024h.jpg"
          }
        ],
        "zpetnaVazba": [
          {
            "podminka": [
              0,
              1,
              2,
              3,
              4,
              5,
              6,
              7
            ],
            "text": "V některých závěrech se lišíme.",
            "barva": "color-orange"
          },
          {
            "podminka": [
              8
            ],
            "text": "Výtečně. Došli jsme ke stejným závěrům.",
            "barva": "color-green"
          }
        ],
        "zadani": [
          {
            "otazka": "Sběr čaje byla pouze mužská práce.",
            "spravnaOdpoved": 2,
            "odpovedi": [
              {
                "text": "Správné"
              },
              {
                "text": "Chybné"
              }
            ]
          },
          {
            "otazka": "Rytina zobrazuje srílanské pracovníky v podřízené pozici vůči Britům.",
            "spravnaOdpoved": 1,
            "odpovedi": [
              {
                "text": "Správné"
              },
              {
                "text": "Chybné"
              }
            ]
          },
          {
            "otazka": "Produkce čaje byla založena zejména na ruční práci a využití jednoduchých strojů.",
            "spravnaOdpoved": 1,
            "odpovedi": [
              {
                "text": "Správné"
              },
              {
                "text": "Chybné"
              }
            ]
          },
          {
            "otazka": "Obyvatelé Srí Lanky vlastnili půdu, na které se čaj pěstoval.",
            "spravnaOdpoved": 2,
            "odpovedi": [
              {
                "text": "Správné"
              },
              {
                "text": "Chybné"
              }
            ]
          },
          {
            "otazka": "Sklizený čaj se prodal na místním trhu.",
            "spravnaOdpoved": 2,
            "odpovedi": [
              {
                "text": "Správné"
              },
              {
                "text": "Chybné"
              }
            ]
          },
          {
            "otazka": "Rytina byla určena pro britské čtenářky a čtenáře.",
            "spravnaOdpoved": 1,
            "odpovedi": [
              {
                "text": "Správné"
              },
              {
                "text": "Chybné"
              }
            ]
          },
          {
            "otazka": "Produkce čaje byla postavena na práci srílanských obyvatel na čajových plantážích.",
            "spravnaOdpoved": 1,
            "odpovedi": [
              {
                "text": "Správné"
              },
              {
                "text": "Chybné"
              }
            ]
          },
          {
            "otazka": "O „britské” čajové kultuře se mluví proto, že Srí Lanka byla v té době britskou kolonií.",
            "spravnaOdpoved": 1,
            "odpovedi": [
              {
                "text": "Správné"
              },
              {
                "text": "Chybné"
              }
            ]
          }
        ]
      }
    },
    {
      "zadani": {
        "hlavni": "Proč je Velká Británie zemí čaje? Napište text turistického průvodce tak, aby návštěvníka Velké Británie lépe seznámil s historií čaje.",
        "rozsirujici": "Text by měl mít alespoň 3 věty.  Použijte alespoň jedno z následujících slov: protože, přestože, kromě, nejen, nebo."
      },
      "napoveda": {
        "aktivity": [
          "text"
        ],
        "text": "Do boxu pro text zapisujete odpověď na otázku, nebo jiný komentář (dle zadání)."
      },
      "uzivatelskyText": {
        "galerie": [
          {
            "soubor": "proc-je-velka-britanie-zemi-caje/pic-01-1024h.jpg"
          },
          {
            "soubor": "proc-je-velka-britanie-zemi-caje/pic-02-1280w.jpg"
          },
          {
            "typ": "svg",
            "objekt": {
              "id": "svg-1-dup",
              "soubor": "proc-je-velka-britanie-zemi-caje/pic-00-1024h.jpg",
              "duplikovat": [
                "svg-1"
              ],
              "funkce": [
                "text",
                "znacky"
              ]
            }
          },
          {
            "typ": "svg",
            "objekt": {
              "id": "svg-2-dup",
              "soubor": "proc-je-velka-britanie-zemi-caje/pic-03-1024w.jpg",
              "duplikovat": [
                "svg-2"
              ],
              "funkce": [
                "text",
                "znacky"
              ]
            }
          },
          {
            "typ": "svg",
            "objekt": {
              "id": "svg-3-dup",
              "soubor": "proc-je-velka-britanie-zemi-caje/pic-04-1024w.jpg",
              "duplikovat": [
                "svg-3"
              ],
              "funkce": [
                "text",
                "znacky"
              ]
            }
          }
        ],
        "layout": "velka-galerie",
        "otazky": [
          {
            "id": "text-2",
            "zadani": "Text průvodce:",
            "instrukce": "text průvodce...",
            "minDelka": 20,
            "maxDelka": 999,
            "vyska": 10
          }
        ]
      }
    }
  ]
}